<svg width="458" height="9" viewBox="0 0 458 9" fill="none" xmlns="http://www.w3.org/2000/svg">
<path d="M154.303 8.99342C158.871 8.95832 163.362 8.64243 167.891 8.32654C169.964 8.18615 172.037 8.0282 174.148 7.88781C176.451 7.71232 178.754 7.46663 181.057 7.20339C182.631 7.0279 184.166 6.83486 185.74 6.65937C187.313 6.48387 188.926 6.3435 190.538 6.2382C191.651 6.18555 192.764 6.15043 193.877 6.13288C195.144 6.11533 196.372 6.13289 197.639 6.16799C200.019 6.23819 202.398 6.41369 204.778 6.53654C206.928 6.65938 209.116 6.74713 211.303 6.78222C213.606 6.81732 215.909 6.81732 218.212 6.83487C222.819 6.86997 227.425 7.15075 232.069 7.23849C234.449 7.29114 236.829 7.2385 239.17 7.18585C241.435 7.1332 243.738 7.08057 246.002 7.06302C250.57 7.02792 255.176 7.06299 259.744 7.01035C262.2 6.97525 264.619 6.95771 267.075 6.94016C269.532 6.92261 271.988 6.94016 274.407 6.94016C278.897 6.95771 283.35 6.92261 287.841 6.79976C290.182 6.74712 292.562 6.67692 294.904 6.55408C297.13 6.43123 299.356 6.29084 301.621 6.15045C301.582 6.15045 301.544 6.15045 301.506 6.15045C305.958 5.88721 310.372 5.7468 314.863 5.69415C319.316 5.64151 323.768 5.72927 328.182 5.79947C332.597 5.86967 337.049 5.95741 341.463 5.95741C345.993 5.93986 350.445 5.7117 354.936 5.50111C357.661 5.37827 360.386 5.23787 363.112 5.00973C365.645 4.79914 368.14 4.53591 370.712 4.36042C375.279 4.13228 379.885 4.04453 384.492 4.02698C386.91 4.00943 389.328 4.06208 391.708 4.11473C394.011 4.16738 396.314 4.22003 398.578 4.36042C400.766 4.48326 402.954 4.67631 405.142 4.83426C407.253 4.9922 409.403 5.11504 411.514 5.23788C413.702 5.36073 415.928 5.50113 418.154 5.57132C420.304 5.64152 422.453 5.6766 424.603 5.69415C427.29 5.7117 430.015 5.71172 432.702 5.71172C435.504 5.69417 438.344 5.67663 441.146 5.55378C444.217 5.43094 447.364 5.15014 450.282 4.58857C451.625 4.34288 452.853 4.00944 454.082 3.62336C454.849 3.37767 455.579 3.11441 456.346 2.86872C456.845 2.71078 457.344 2.55286 457.766 2.34227C457.92 2.25452 457.958 2.14921 457.997 2.02637C458.035 1.83333 457.728 1.65785 457.421 1.6052C457.191 1.5701 456.96 1.58765 456.768 1.65785C456.692 1.6754 456.615 1.71048 456.538 1.72803C455.54 1.90353 454.542 2.00882 453.544 2.07901C449.015 2.2896 444.486 2.34227 439.956 2.23698C435.581 2.14923 431.243 1.92108 426.867 1.81579C422.53 1.71049 418.231 1.62274 413.894 1.37705C411.706 1.25421 409.518 1.13136 407.33 0.990969C405.104 0.833026 402.877 0.657536 400.613 0.499593C398.809 0.359199 397.005 0.253889 395.162 0.183692C393.243 0.113495 391.362 0.0784206 389.443 0.0433216C385.566 -0.0268755 381.69 -0.00934505 377.851 0.0784006C373.859 0.166147 369.867 0.359185 365.952 0.815466C364.186 1.02606 362.382 1.27175 360.617 1.49989C358.89 1.72803 357.162 1.88598 355.435 2.00883C351.136 2.27207 346.837 2.48264 342.5 2.57039C340.35 2.60549 338.162 2.60551 336.013 2.58796C333.748 2.57041 331.522 2.58795 329.257 2.6055C324.805 2.62305 320.314 2.58795 315.861 2.6406C311.485 2.69325 307.071 2.79853 302.695 3.06177C300.815 3.16706 298.934 3.28993 297.053 3.41277C292.639 3.65846 288.186 3.79885 283.772 3.86904C279.013 3.95679 274.215 3.92169 269.417 3.92169C264.58 3.92169 259.782 4.00944 254.946 4.11473C250.417 4.22003 245.887 4.23759 241.358 4.34288C239.017 4.39553 236.714 4.48328 234.372 4.48328C231.877 4.48328 229.382 4.39551 226.926 4.32531C224.815 4.25512 222.665 4.18493 220.554 4.16738C218.289 4.14983 216.063 4.16737 213.798 4.18492C211.61 4.20247 209.384 4.22003 207.196 4.16738C204.74 4.11473 202.283 3.97434 199.865 3.86904C197.562 3.76375 195.259 3.69356 192.956 3.76375C190.461 3.83395 187.966 3.97433 185.509 4.22002C183.513 4.41306 181.556 4.65876 179.56 4.8869C177.487 5.11504 175.376 5.32563 173.265 5.48357C171.538 5.62396 169.81 5.72925 168.083 5.83455C166.241 5.95739 164.437 6.08025 162.594 6.2031C159.907 6.36104 157.182 6.46634 154.457 6.48389C151.501 6.50144 148.546 6.39613 145.629 6.16799C142.443 5.86965 139.257 5.50112 136.109 5.18524C132.386 4.79915 128.624 4.48327 124.863 4.14984C125.055 4.16739 125.247 4.18493 125.439 4.20248C122.982 3.99189 120.525 3.7462 118.107 3.48296C115.766 3.23727 113.424 2.97404 111.045 2.781C106.208 2.35982 101.333 1.95619 96.4587 1.85089C93.9638 1.79824 91.5073 1.79824 89.0123 1.81579C86.7093 1.85088 84.4446 1.90354 82.1416 2.04393C77.5739 2.32472 73.0062 2.69324 68.4385 2.99158C67.9779 3.02668 67.4789 3.06178 67.0183 3.07933C64.7921 3.20218 62.5274 3.32502 60.3011 3.37767C59.1496 3.41277 57.9597 3.37767 56.8082 3.37767C55.6183 3.36012 54.39 3.34256 53.2001 3.28992C48.4405 3.09687 43.7193 2.81608 38.9597 2.62304C34.392 2.42999 29.8627 2.28961 25.295 2.27206C20.4586 2.23696 15.5839 2.25452 10.7475 2.25452C9.36569 2.25452 7.98386 2.23698 6.60205 2.23698C6.41013 2.23698 6.2182 2.23698 5.98788 2.23698C5.52728 2.23698 5.06671 2.21943 4.60611 2.23698C4.14551 2.25453 3.68488 2.25451 3.26263 2.27206C2.61011 2.28961 1.95761 2.35981 1.30508 2.41245C0.537415 2.4651 0 2.9565 0 3.36013C0 3.81641 0.537415 4.20249 1.30508 4.34288C1.72729 4.43063 2.22629 4.55346 2.68689 4.60611C3.03235 4.64121 3.37781 4.67631 3.72327 4.69386C4.37579 4.74651 4.98993 4.79914 5.60406 4.81669C6.79398 4.86934 7.98386 4.8869 9.17377 4.8869C11.5919 4.8869 13.9718 4.86936 16.39 4.86936C21.1496 4.85181 25.9091 4.86934 30.6687 4.95709C35.2364 5.04483 39.8425 5.25544 44.4102 5.46603C46.7516 5.57133 49.093 5.69418 51.4344 5.79947C53.8142 5.92232 56.1941 5.95742 58.5739 5.99251C60.7617 6.01006 62.9496 5.92232 65.0991 5.79947C67.1718 5.69418 69.2062 5.55376 71.2789 5.39582C75.0789 5.13258 78.8789 4.8167 82.679 4.55346C84.7901 4.43062 86.9012 4.34287 89.0507 4.30778C91.5457 4.27268 94.0022 4.25512 96.4971 4.32531C101.257 4.43061 105.978 4.79914 110.699 5.20278C113.309 5.44847 115.881 5.72927 118.453 5.99251C121.178 6.2733 123.865 6.51898 126.59 6.74712C126.398 6.72957 126.206 6.71202 126.014 6.69447C130.812 7.1332 135.61 7.58948 140.408 8.11596C142.827 8.3792 145.283 8.64244 147.74 8.78284C149.16 8.87058 150.58 8.92322 152 8.94077C152.691 8.99342 153.497 9.01097 154.303 8.99342ZM161.903 6.29085C161.98 6.29085 162.018 6.29083 162.095 6.27328C162.057 6.29083 161.98 6.29085 161.903 6.29085Z" fill="#6A974C"/>
</svg>
