<svg width="14" height="14" viewBox="0 0 14 14" fill="none" xmlns="http://www.w3.org/2000/svg">
<path fill-rule="evenodd" clip-rule="evenodd" d="M6.87958 0.78607C7.20501 0.460633 7.73265 0.460633 8.05809 0.78607L13.6831 6.41107C14.0085 6.73651 14.0085 7.26415 13.6831 7.58958L8.05809 13.2146C7.73265 13.54 7.20501 13.54 6.87958 13.2146C6.55414 12.8891 6.55414 12.3615 6.87958 12.0361L11.9153 7.00033L6.87958 1.96458C6.55414 1.63914 6.55414 1.11151 6.87958 0.78607Z" fill="#534434"/>
<path fill-rule="evenodd" clip-rule="evenodd" d="M0.072998 7.00033C0.072998 6.54009 0.446094 6.16699 0.906331 6.16699H12.3126C12.7728 6.16699 13.1459 6.54009 13.1459 7.00033C13.1459 7.46056 12.7728 7.83366 12.3126 7.83366H0.906331C0.446094 7.83366 0.072998 7.46056 0.072998 7.00033Z" fill="#534434"/>
</svg>
