<svg width="28" height="27" viewBox="0 0 28 27" fill="none" xmlns="http://www.w3.org/2000/svg">
<path d="M21.1911 4.66216C20.8747 4.66216 20.5653 4.756 20.3022 4.93181C20.0391 5.10762 19.834 5.35751 19.7129 5.64987C19.5918 5.94223 19.5601 6.26394 19.6219 6.57431C19.6836 6.88468 19.836 7.16977 20.0598 7.39353C20.2835 7.6173 20.5686 7.76968 20.879 7.83142C21.1894 7.89315 21.5111 7.86147 21.8034 7.74037C22.0958 7.61927 22.3457 7.41419 22.5215 7.15107C22.6973 6.88796 22.7911 6.57861 22.7911 6.26216C22.7911 5.83782 22.6226 5.43085 22.3225 5.13079C22.0224 4.83073 21.6155 4.66216 21.1911 4.66216ZM27.3245 7.88883C27.2985 6.78256 27.0913 5.68803 26.7111 4.64883C26.3721 3.75967 25.8444 2.95453 25.1645 2.28883C24.5042 1.6054 23.6972 1.08106 22.8045 0.755495C21.768 0.363709 20.6723 0.151775 19.5645 0.128828C18.1511 0.0488281 17.6978 0.0488281 14.0711 0.0488281C10.4445 0.0488281 9.99113 0.0488281 8.57779 0.128828C7.47 0.151775 6.37425 0.363709 5.33779 0.755495C4.44669 1.08436 3.64037 1.60824 2.97779 2.28883C2.29436 2.94907 1.77003 3.75608 1.44446 4.64883C1.05267 5.68529 0.84074 6.78103 0.817793 7.88883C0.737793 9.30216 0.737793 9.7555 0.737793 13.3822C0.737793 17.0088 0.737793 17.4622 0.817793 18.8755C0.84074 19.9833 1.05267 21.079 1.44446 22.1155C1.77003 23.0082 2.29436 23.8153 2.97779 24.4755C3.64037 25.1561 4.44669 25.68 5.33779 26.0088C6.37425 26.4006 7.47 26.6125 8.57779 26.6355C9.99113 26.7155 10.4445 26.7155 14.0711 26.7155C17.6978 26.7155 18.1511 26.7155 19.5645 26.6355C20.6723 26.6125 21.768 26.4006 22.8045 26.0088C23.6972 25.6833 24.5042 25.1589 25.1645 24.4755C25.8475 23.8123 26.3756 23.0064 26.7111 22.1155C27.0913 21.0763 27.2985 19.9818 27.3245 18.8755C27.3245 17.4622 27.4045 17.0088 27.4045 13.3822C27.4045 9.7555 27.4045 9.30216 27.3245 7.88883ZM24.9245 18.7155C24.9148 19.5619 24.7615 20.4004 24.4711 21.1955C24.2582 21.7758 23.9163 22.3001 23.4711 22.7288C23.0387 23.1695 22.5154 23.5107 21.9378 23.7288C21.1427 24.0192 20.3042 24.1725 19.4578 24.1822C18.1245 24.2488 17.6311 24.2622 14.1245 24.2622C10.6178 24.2622 10.1245 24.2622 8.79113 24.1822C7.91231 24.1986 7.03725 24.0633 6.20446 23.7822C5.65217 23.5529 5.15293 23.2125 4.73779 22.7822C4.29524 22.3538 3.95758 21.8291 3.75113 21.2488C3.4256 20.4424 3.24505 19.5848 3.21779 18.7155C3.21779 17.3822 3.13779 16.8888 3.13779 13.3822C3.13779 9.87549 3.13779 9.38216 3.21779 8.04883C3.22377 7.18357 3.38173 6.32609 3.68446 5.51549C3.91919 4.95271 4.27948 4.45104 4.73779 4.04883C5.14288 3.59039 5.64351 3.22629 6.20446 2.98216C7.01719 2.68889 7.87379 2.5356 8.73779 2.52883C10.0711 2.52883 10.5645 2.44883 14.0711 2.44883C17.5778 2.44883 18.0711 2.44883 19.4045 2.52883C20.2508 2.53854 21.0894 2.69182 21.8845 2.98216C22.4904 3.20703 23.0342 3.57262 23.4711 4.04883C23.9081 4.4584 24.2495 4.95914 24.4711 5.51549C24.7675 6.32741 24.9208 7.18454 24.9245 8.04883C24.9911 9.38216 25.0045 9.87549 25.0045 13.3822C25.0045 16.8888 24.9911 17.3822 24.9245 18.7155ZM14.0711 6.54216C12.7189 6.5448 11.3977 6.9482 10.2747 7.70139C9.15159 8.45458 8.27696 9.52376 7.7613 10.7738C7.24565 12.0239 7.11209 13.3988 7.37752 14.7247C7.64295 16.0507 8.29544 17.2682 9.25256 18.2235C10.2097 19.1787 11.4285 19.8288 12.7549 20.0917C14.0814 20.3545 15.456 20.2183 16.7051 19.7002C17.9542 19.1821 19.0216 18.3054 19.7726 17.1809C20.5236 16.0563 20.9245 14.7344 20.9245 13.3822C20.9262 12.4823 20.7501 11.591 20.4061 10.7594C20.0622 9.9279 19.5572 9.17257 18.9203 8.5369C18.2834 7.90122 17.5271 7.39773 16.6949 7.0554C15.8627 6.71307 14.971 6.53864 14.0711 6.54216ZM14.0711 17.8222C13.193 17.8222 12.3345 17.5618 11.6044 17.0739C10.8742 16.586 10.3052 15.8926 9.9691 15.0813C9.63305 14.27 9.54512 13.3772 9.71644 12.516C9.88776 11.6547 10.3106 10.8636 10.9316 10.2426C11.5525 9.62166 12.3436 9.19879 13.2049 9.02748C14.0662 8.85616 14.9589 8.94408 15.7702 9.28014C16.5815 9.61619 17.275 10.1853 17.7629 10.9154C18.2507 11.6456 18.5111 12.504 18.5111 13.3822C18.5111 13.9652 18.3963 14.5426 18.1732 15.0813C17.95 15.62 17.623 16.1094 17.2107 16.5217C16.7984 16.934 16.3089 17.2611 15.7702 17.4842C15.2316 17.7073 14.6542 17.8222 14.0711 17.8222Z" fill="white"/>
</svg>
